Fitting Generalized Additive Models (GAMs) • tractable
…
We start by loading the tractable library:

library(tractable)

Next, we will use a function that is included in
tractable to read this dataset directly into memory.

Importantly, both the group (“ALS” or “CTRL”) and the subject
identifier (“subjectID”) need to be factors for subsequent analysis to
work properly.

df_sarica <- read_afq_sarica(na_omit = TRUE)
df_sarica
#> # A tibble: 93,377 × 8
#>    subjectID   tractID                 nodeID    fa    md   age group gender
#>    <fct>       <chr>                    <dbl> <dbl> <dbl> <dbl> <fct> <fct> 
#>  1 subject_000 Left Thalamic Radiation      0 0.174 0.965    54 ALS   F     
#>  2 subject_000 Left Thalamic Radiation      1 0.227 0.912    54 ALS   F     
#>  3 subject_000 Left Thalamic Radiation      2 0.282 0.874    54 ALS   F     
#>  4 subject_000 Left Thalamic Radiation      3 0.318 0.851    54 ALS   F     
#>  5 subject_000 Left Thalamic Radiation      4 0.341 0.830    54 ALS   F     
#>  6 subject_000 Left Thalamic Radiation      5 0.353 0.812    54 ALS   F     
#>  7 subject_000 Left Thalamic Radiation      6 0.357 0.802    54 ALS   F     
#>  8 subject_000 Left Thalamic Radiation      7 0.357 0.795    54 ALS   F     
#>  9 subject_000 Left Thalamic Radiation      8 0.359 0.790    54 ALS   F     
#> 10 subject_000 Left Thalamic Radiation      9 0.371 0.784    54 ALS   F     
#> # ℹ 93,367 more rows
…
